﻿Log file open, 02/18/18 00:53:02
LogInit:Display: Running engine for game: TestBlank2
LogPlatformFile: Not using cached read wrapper
LogInit:Display: RandInit(-267029899) SRandInit(-267029899).
LogInit: Using version manifest at CL 0 with build ID '0d246e5a-31d7-4c75-b4c0-ef081bd3f2c1'
LogTaskGraph: Started task graph with 5 named threads and 8 total threads with 1 sets of task threads.
LogStats: Stats thread started at 0.076041
LogInit:Warning: Incompatible or missing module: UE4Editor-TestBlank2.dll
Running D:/Programs/EpicGames/Hairworks/Engine/Binaries/DotNET/UnrealBuildTool.exe TestBlank2 Development Win64 -project="D:/Programs/EpicGames/Projects/TestBlank2/TestBlank2.uproject" -editorrecompile -progress -NoHotReloadFromIDE
UnrealBuildTool Exception: ERROR: A conflicting instance of UnrealBuildTool is already running at this location: D:\Programs\EpicGames\Hairworks\Engine\Binaries\DotNET\UnrealBuildTool.exe. A process manager may be used to determine the conflicting process and what tool may have launched it.
LogInit:Warning: Still incompatible or missing module: UE4Editor-TestBlank2.dll
LogExit: Preparing to exit.
LogModuleManager: Shutting down and abandoning module DesktopPlatform (36)
LogModuleManager: Shutting down and abandoning module AnimationModifiers (34)
LogModuleManager: Shutting down and abandoning module PropertyEditor (33)
LogModuleManager: Shutting down and abandoning module AudioEditor (30)
LogModuleManager: Shutting down and abandoning module TextureCompressor (28)
LogModuleManager: Shutting down and abandoning module ShaderCore (26)
LogModuleManager: Shutting down and abandoning module Landscape (24)
LogModuleManager: Shutting down and abandoning module SlateRHIRenderer (22)
LogModuleManager: Shutting down and abandoning module OpenGLDrv (20)
LogModuleManager: Shutting down and abandoning module D3D11RHI (18)
LogModuleManager: Shutting down and abandoning module AnimGraphRuntime (16)
LogModuleManager: Shutting down and abandoning module Renderer (14)
LogModuleManager: Shutting down and abandoning module Engine (12)
LogModuleManager: Shutting down and abandoning module CoreUObject (10)
LogModuleManager: Shutting down and abandoning module NetworkFile (8)
LogModuleManager: Shutting down and abandoning module StreamingFile (6)
LogModuleManager: Shutting down and abandoning module SandboxFile (4)
LogModuleManager: Shutting down and abandoning module PakFile (2)
LogExit: Exiting.
Log file closed, 02/18/18 00:53:07
